2024-02-27 13:51:08,214 - Packet-Worker 7ff4aeaa-44e2-4a1a-a9bd-f1eda3ea8f7d - INFO - Worker started
2024-02-27 13:51:08,422 - Packet-Worker 7ff4aeaa-44e2-4a1a-a9bd-f1eda3ea8f7d - INFO - Initialized, waiting for packets
2024-02-27 13:56:03,544 - Packet-Worker 25d1f9c9-b5ae-4e3d-b5d4-0d54376386cf - INFO - Worker started
2024-02-27 13:56:03,748 - Packet-Worker 25d1f9c9-b5ae-4e3d-b5d4-0d54376386cf - INFO - Initialized, waiting for packets
2024-02-27 13:56:22,895 - State-Merger 24d87082-2bef-415a-8e16-3b2f80dcd694 - INFO - Worker started
2024-02-27 13:56:22,998 - State-Merger 24d87082-2bef-415a-8e16-3b2f80dcd694 - INFO - Connected to kafka
2024-02-27 13:56:22,998 - State-Merger 24d87082-2bef-415a-8e16-3b2f80dcd694 - INFO - Connected to redis
2024-02-27 13:56:22,998 - State-Merger 24d87082-2bef-415a-8e16-3b2f80dcd694 - INFO - Initialized, waiting for states
2024-02-27 13:56:34,021 - Work-Dispatcher b7dd6b52-71aa-4f58-b292-d44f8b9cd9c1 - INFO - Connected to kafka
2024-02-27 13:56:34,021 - Work-Dispatcher b7dd6b52-71aa-4f58-b292-d44f8b9cd9c1 - INFO - Connected to redis
2024-02-27 13:56:34,021 - Work-Dispatcher b7dd6b52-71aa-4f58-b292-d44f8b9cd9c1 - INFO - Initialized, waiting for states
2024-02-27 13:56:34,029 - Work-Dispatcher b7dd6b52-71aa-4f58-b292-d44f8b9cd9c1 - INFO - No network state found, waiting for state
2024-02-27 13:56:35,030 - Work-Dispatcher b7dd6b52-71aa-4f58-b292-d44f8b9cd9c1 - INFO - No network state found, waiting for state
2024-02-27 13:56:36,030 - Work-Dispatcher b7dd6b52-71aa-4f58-b292-d44f8b9cd9c1 - INFO - No network state found, waiting for state
2024-02-27 13:56:37,030 - Work-Dispatcher b7dd6b52-71aa-4f58-b292-d44f8b9cd9c1 - INFO - No network state found, waiting for state
2024-02-27 13:56:38,031 - Work-Dispatcher b7dd6b52-71aa-4f58-b292-d44f8b9cd9c1 - INFO - No network state found, waiting for state
2024-02-27 13:56:39,031 - Work-Dispatcher b7dd6b52-71aa-4f58-b292-d44f8b9cd9c1 - INFO - No network state found, waiting for state
2024-02-27 13:56:40,032 - Work-Dispatcher b7dd6b52-71aa-4f58-b292-d44f8b9cd9c1 - INFO - No network state found, waiting for state
2024-02-27 13:56:41,032 - Work-Dispatcher b7dd6b52-71aa-4f58-b292-d44f8b9cd9c1 - INFO - No network state found, waiting for state
2024-02-27 13:56:42,032 - Work-Dispatcher b7dd6b52-71aa-4f58-b292-d44f8b9cd9c1 - INFO - No network state found, waiting for state
2024-02-27 13:56:42,579 - Connection-Analysis f714e50d-189a-443b-a668-ecd30dd35d71 - INFO - Connection-Analysis f714e50d-189a-443b-a668-ecd30dd35d71 started
2024-02-27 13:56:42,579 - Connection-Analysis f714e50d-189a-443b-a668-ecd30dd35d71 - INFO - Loading analysis models
2024-02-27 13:56:42,958 - Connection-Analysis f714e50d-189a-443b-a668-ecd30dd35d71 - INFO - Loaded model incoming_attack_probability
2024-02-27 13:56:43,033 - Work-Dispatcher b7dd6b52-71aa-4f58-b292-d44f8b9cd9c1 - INFO - No network state found, waiting for state
2024-02-27 13:56:44,033 - Work-Dispatcher b7dd6b52-71aa-4f58-b292-d44f8b9cd9c1 - INFO - No network state found, waiting for state
2024-02-27 13:56:44,620 - Connection-Analysis f714e50d-189a-443b-a668-ecd30dd35d71 - INFO - Loaded model outgoing_attack_probability
2024-02-27 13:56:45,033 - Work-Dispatcher b7dd6b52-71aa-4f58-b292-d44f8b9cd9c1 - INFO - No network state found, waiting for state
2024-02-27 13:56:46,033 - Work-Dispatcher b7dd6b52-71aa-4f58-b292-d44f8b9cd9c1 - INFO - No network state found, waiting for state
2024-02-27 13:56:47,034 - Work-Dispatcher b7dd6b52-71aa-4f58-b292-d44f8b9cd9c1 - INFO - No network state found, waiting for state
2024-02-27 13:56:48,034 - Work-Dispatcher b7dd6b52-71aa-4f58-b292-d44f8b9cd9c1 - INFO - No network state found, waiting for state
2024-02-27 13:56:49,034 - Work-Dispatcher b7dd6b52-71aa-4f58-b292-d44f8b9cd9c1 - INFO - No network state found, waiting for state
2024-02-27 13:56:50,035 - Work-Dispatcher b7dd6b52-71aa-4f58-b292-d44f8b9cd9c1 - INFO - No network state found, waiting for state
2024-02-27 13:56:51,035 - Work-Dispatcher b7dd6b52-71aa-4f58-b292-d44f8b9cd9c1 - INFO - No network state found, waiting for state
2024-02-27 13:56:52,035 - Work-Dispatcher b7dd6b52-71aa-4f58-b292-d44f8b9cd9c1 - INFO - No network state found, waiting for state
2024-02-27 13:56:53,036 - Work-Dispatcher b7dd6b52-71aa-4f58-b292-d44f8b9cd9c1 - INFO - No network state found, waiting for state
2024-02-27 13:56:54,036 - Work-Dispatcher b7dd6b52-71aa-4f58-b292-d44f8b9cd9c1 - INFO - No network state found, waiting for state
2024-02-27 13:56:55,036 - Work-Dispatcher b7dd6b52-71aa-4f58-b292-d44f8b9cd9c1 - INFO - No network state found, waiting for state
2024-02-27 13:56:56,036 - Work-Dispatcher b7dd6b52-71aa-4f58-b292-d44f8b9cd9c1 - INFO - No network state found, waiting for state
2024-02-27 13:56:57,037 - Work-Dispatcher b7dd6b52-71aa-4f58-b292-d44f8b9cd9c1 - INFO - No network state found, waiting for state
2024-02-27 13:56:58,037 - Work-Dispatcher b7dd6b52-71aa-4f58-b292-d44f8b9cd9c1 - INFO - No network state found, waiting for state
2024-02-27 13:56:59,037 - Work-Dispatcher b7dd6b52-71aa-4f58-b292-d44f8b9cd9c1 - INFO - No network state found, waiting for state
2024-02-27 13:57:00,038 - Work-Dispatcher b7dd6b52-71aa-4f58-b292-d44f8b9cd9c1 - INFO - No network state found, waiting for state
2024-02-27 13:57:01,038 - Work-Dispatcher b7dd6b52-71aa-4f58-b292-d44f8b9cd9c1 - INFO - No network state found, waiting for state
2024-02-27 13:57:01,460 - Packet-Worker d750d3d9-8562-413f-a53c-7a0a869a56bb - INFO - Worker started
2024-02-27 13:57:01,664 - Packet-Worker d750d3d9-8562-413f-a53c-7a0a869a56bb - INFO - Initialized, waiting for packets
2024-02-27 13:57:02,038 - Work-Dispatcher b7dd6b52-71aa-4f58-b292-d44f8b9cd9c1 - INFO - No network state found, waiting for state
2024-02-27 13:57:03,039 - Work-Dispatcher b7dd6b52-71aa-4f58-b292-d44f8b9cd9c1 - INFO - No network state found, waiting for state
2024-02-27 13:57:04,039 - Work-Dispatcher b7dd6b52-71aa-4f58-b292-d44f8b9cd9c1 - INFO - No network state found, waiting for state
2024-02-27 13:57:05,039 - Work-Dispatcher b7dd6b52-71aa-4f58-b292-d44f8b9cd9c1 - INFO - No network state found, waiting for state
2024-02-27 13:57:05,671 - State-Merger db6e42e9-1c66-4d64-ba60-a4be8bb3cbd1 - INFO - Worker started
2024-02-27 13:57:05,774 - State-Merger db6e42e9-1c66-4d64-ba60-a4be8bb3cbd1 - INFO - Connected to kafka
2024-02-27 13:57:05,774 - State-Merger db6e42e9-1c66-4d64-ba60-a4be8bb3cbd1 - INFO - Connected to redis
2024-02-27 13:57:05,775 - State-Merger db6e42e9-1c66-4d64-ba60-a4be8bb3cbd1 - INFO - Initialized, waiting for states
2024-02-27 13:57:06,040 - Work-Dispatcher b7dd6b52-71aa-4f58-b292-d44f8b9cd9c1 - INFO - No network state found, waiting for state
2024-02-27 13:57:07,040 - Work-Dispatcher b7dd6b52-71aa-4f58-b292-d44f8b9cd9c1 - INFO - No network state found, waiting for state
2024-02-27 13:57:08,040 - Work-Dispatcher b7dd6b52-71aa-4f58-b292-d44f8b9cd9c1 - INFO - No network state found, waiting for state
2024-02-27 13:57:09,041 - Work-Dispatcher b7dd6b52-71aa-4f58-b292-d44f8b9cd9c1 - INFO - No network state found, waiting for state
2024-02-27 13:57:10,041 - Work-Dispatcher b7dd6b52-71aa-4f58-b292-d44f8b9cd9c1 - INFO - No network state found, waiting for state
2024-02-27 13:57:11,041 - Work-Dispatcher b7dd6b52-71aa-4f58-b292-d44f8b9cd9c1 - INFO - No network state found, waiting for state
2024-02-27 13:57:12,042 - Work-Dispatcher b7dd6b52-71aa-4f58-b292-d44f8b9cd9c1 - INFO - No network state found, waiting for state
2024-02-27 13:57:13,042 - Work-Dispatcher b7dd6b52-71aa-4f58-b292-d44f8b9cd9c1 - INFO - No network state found, waiting for state
2024-02-27 13:57:14,043 - Work-Dispatcher b7dd6b52-71aa-4f58-b292-d44f8b9cd9c1 - INFO - No network state found, waiting for state
2024-02-27 13:57:15,043 - Work-Dispatcher b7dd6b52-71aa-4f58-b292-d44f8b9cd9c1 - INFO - No network state found, waiting for state
2024-02-27 13:57:16,043 - Work-Dispatcher b7dd6b52-71aa-4f58-b292-d44f8b9cd9c1 - INFO - No network state found, waiting for state
2024-02-27 13:57:17,044 - Work-Dispatcher b7dd6b52-71aa-4f58-b292-d44f8b9cd9c1 - INFO - No network state found, waiting for state
2024-02-27 13:57:18,044 - Work-Dispatcher b7dd6b52-71aa-4f58-b292-d44f8b9cd9c1 - INFO - No network state found, waiting for state
2024-02-27 13:57:19,044 - Work-Dispatcher b7dd6b52-71aa-4f58-b292-d44f8b9cd9c1 - INFO - No network state found, waiting for state
2024-02-27 13:57:20,045 - Work-Dispatcher b7dd6b52-71aa-4f58-b292-d44f8b9cd9c1 - INFO - No network state found, waiting for state
2024-02-27 13:57:21,045 - Work-Dispatcher b7dd6b52-71aa-4f58-b292-d44f8b9cd9c1 - INFO - No network state found, waiting for state
2024-02-27 13:57:22,046 - Work-Dispatcher b7dd6b52-71aa-4f58-b292-d44f8b9cd9c1 - INFO - No network state found, waiting for state
2024-02-27 13:57:23,046 - Work-Dispatcher b7dd6b52-71aa-4f58-b292-d44f8b9cd9c1 - INFO - No network state found, waiting for state
2024-02-27 13:57:24,046 - Work-Dispatcher b7dd6b52-71aa-4f58-b292-d44f8b9cd9c1 - INFO - No network state found, waiting for state
2024-02-27 13:57:25,047 - Work-Dispatcher b7dd6b52-71aa-4f58-b292-d44f8b9cd9c1 - INFO - No network state found, waiting for state
2024-02-27 13:57:26,047 - Work-Dispatcher b7dd6b52-71aa-4f58-b292-d44f8b9cd9c1 - INFO - No network state found, waiting for state
2024-02-27 13:57:27,047 - Work-Dispatcher b7dd6b52-71aa-4f58-b292-d44f8b9cd9c1 - INFO - No network state found, waiting for state
2024-02-27 13:57:28,047 - Work-Dispatcher b7dd6b52-71aa-4f58-b292-d44f8b9cd9c1 - INFO - No network state found, waiting for state
2024-02-27 13:57:29,048 - Work-Dispatcher b7dd6b52-71aa-4f58-b292-d44f8b9cd9c1 - INFO - No network state found, waiting for state
2024-02-27 13:57:30,048 - Work-Dispatcher b7dd6b52-71aa-4f58-b292-d44f8b9cd9c1 - INFO - No network state found, waiting for state
2024-02-27 13:57:31,048 - Work-Dispatcher b7dd6b52-71aa-4f58-b292-d44f8b9cd9c1 - INFO - No network state found, waiting for state
2024-02-27 13:57:32,049 - Work-Dispatcher b7dd6b52-71aa-4f58-b292-d44f8b9cd9c1 - INFO - No network state found, waiting for state
2024-02-27 13:57:33,049 - Work-Dispatcher b7dd6b52-71aa-4f58-b292-d44f8b9cd9c1 - INFO - No network state found, waiting for state
2024-02-27 13:57:34,049 - Work-Dispatcher b7dd6b52-71aa-4f58-b292-d44f8b9cd9c1 - INFO - No network state found, waiting for state
2024-02-27 13:57:35,049 - Work-Dispatcher b7dd6b52-71aa-4f58-b292-d44f8b9cd9c1 - INFO - No network state found, waiting for state
2024-02-27 13:57:36,050 - Work-Dispatcher b7dd6b52-71aa-4f58-b292-d44f8b9cd9c1 - INFO - No network state found, waiting for state
2024-02-27 13:57:37,050 - Work-Dispatcher b7dd6b52-71aa-4f58-b292-d44f8b9cd9c1 - INFO - No network state found, waiting for state
2024-02-27 13:57:38,050 - Work-Dispatcher b7dd6b52-71aa-4f58-b292-d44f8b9cd9c1 - INFO - No network state found, waiting for state
2024-02-27 13:57:39,051 - Work-Dispatcher b7dd6b52-71aa-4f58-b292-d44f8b9cd9c1 - INFO - No network state found, waiting for state
2024-02-27 13:57:40,051 - Work-Dispatcher b7dd6b52-71aa-4f58-b292-d44f8b9cd9c1 - INFO - No network state found, waiting for state
2024-02-27 13:57:41,051 - Work-Dispatcher b7dd6b52-71aa-4f58-b292-d44f8b9cd9c1 - INFO - No network state found, waiting for state
2024-02-27 13:57:42,052 - Work-Dispatcher b7dd6b52-71aa-4f58-b292-d44f8b9cd9c1 - INFO - No network state found, waiting for state
2024-02-27 13:57:43,052 - Work-Dispatcher b7dd6b52-71aa-4f58-b292-d44f8b9cd9c1 - INFO - No network state found, waiting for state
2024-02-27 13:57:44,052 - Work-Dispatcher b7dd6b52-71aa-4f58-b292-d44f8b9cd9c1 - INFO - No network state found, waiting for state
2024-02-27 13:57:45,052 - Work-Dispatcher b7dd6b52-71aa-4f58-b292-d44f8b9cd9c1 - INFO - No network state found, waiting for state
2024-02-27 13:57:46,053 - Work-Dispatcher b7dd6b52-71aa-4f58-b292-d44f8b9cd9c1 - INFO - No network state found, waiting for state
2024-02-27 13:57:47,053 - Work-Dispatcher b7dd6b52-71aa-4f58-b292-d44f8b9cd9c1 - INFO - No network state found, waiting for state
2024-02-27 13:57:48,053 - Work-Dispatcher b7dd6b52-71aa-4f58-b292-d44f8b9cd9c1 - INFO - No network state found, waiting for state
2024-02-27 13:57:48,206 - Connection-Analysis eac8a4c6-d064-40fc-95d2-9b0828454286 - INFO - Connection-Analysis eac8a4c6-d064-40fc-95d2-9b0828454286 started
2024-02-27 13:57:48,206 - Connection-Analysis eac8a4c6-d064-40fc-95d2-9b0828454286 - INFO - Loading analysis models
2024-02-27 13:57:48,397 - Connection-Analysis eac8a4c6-d064-40fc-95d2-9b0828454286 - INFO - Loaded model incoming_attack_probability
2024-02-27 13:57:49,054 - Work-Dispatcher b7dd6b52-71aa-4f58-b292-d44f8b9cd9c1 - INFO - No network state found, waiting for state
2024-02-27 13:57:49,248 - Connection-Analysis eac8a4c6-d064-40fc-95d2-9b0828454286 - INFO - Loaded model outgoing_attack_probability
2024-02-27 13:57:50,054 - Work-Dispatcher b7dd6b52-71aa-4f58-b292-d44f8b9cd9c1 - INFO - No network state found, waiting for state
2024-02-27 13:57:51,054 - Work-Dispatcher b7dd6b52-71aa-4f58-b292-d44f8b9cd9c1 - INFO - No network state found, waiting for state
2024-02-27 13:57:52,055 - Work-Dispatcher b7dd6b52-71aa-4f58-b292-d44f8b9cd9c1 - INFO - No network state found, waiting for state
2024-02-27 13:57:53,055 - Work-Dispatcher b7dd6b52-71aa-4f58-b292-d44f8b9cd9c1 - INFO - No network state found, waiting for state
2024-02-27 13:57:54,055 - Work-Dispatcher b7dd6b52-71aa-4f58-b292-d44f8b9cd9c1 - INFO - No network state found, waiting for state
2024-02-27 13:57:55,056 - Work-Dispatcher b7dd6b52-71aa-4f58-b292-d44f8b9cd9c1 - INFO - No network state found, waiting for state
2024-02-27 13:57:56,056 - Work-Dispatcher b7dd6b52-71aa-4f58-b292-d44f8b9cd9c1 - INFO - No network state found, waiting for state
2024-02-27 13:57:57,057 - Work-Dispatcher b7dd6b52-71aa-4f58-b292-d44f8b9cd9c1 - INFO - No network state found, waiting for state
2024-02-27 13:57:58,057 - Work-Dispatcher b7dd6b52-71aa-4f58-b292-d44f8b9cd9c1 - INFO - No network state found, waiting for state
2024-02-27 13:57:59,057 - Work-Dispatcher b7dd6b52-71aa-4f58-b292-d44f8b9cd9c1 - INFO - No network state found, waiting for state
2024-02-27 13:58:00,058 - Work-Dispatcher b7dd6b52-71aa-4f58-b292-d44f8b9cd9c1 - INFO - No network state found, waiting for state
2024-02-27 13:58:01,058 - Work-Dispatcher b7dd6b52-71aa-4f58-b292-d44f8b9cd9c1 - INFO - No network state found, waiting for state
2024-02-27 13:58:02,058 - Work-Dispatcher b7dd6b52-71aa-4f58-b292-d44f8b9cd9c1 - INFO - No network state found, waiting for state
2024-02-27 13:58:03,058 - Work-Dispatcher b7dd6b52-71aa-4f58-b292-d44f8b9cd9c1 - INFO - No network state found, waiting for state
2024-02-27 13:58:04,059 - Work-Dispatcher b7dd6b52-71aa-4f58-b292-d44f8b9cd9c1 - INFO - No network state found, waiting for state
2024-02-27 13:58:05,059 - Work-Dispatcher b7dd6b52-71aa-4f58-b292-d44f8b9cd9c1 - INFO - No network state found, waiting for state
2024-02-27 13:58:06,059 - Work-Dispatcher b7dd6b52-71aa-4f58-b292-d44f8b9cd9c1 - INFO - No network state found, waiting for state
2024-02-27 13:58:07,060 - Work-Dispatcher b7dd6b52-71aa-4f58-b292-d44f8b9cd9c1 - INFO - No network state found, waiting for state
2024-02-27 13:58:08,060 - Work-Dispatcher b7dd6b52-71aa-4f58-b292-d44f8b9cd9c1 - INFO - No network state found, waiting for state
2024-02-27 13:58:09,060 - Work-Dispatcher b7dd6b52-71aa-4f58-b292-d44f8b9cd9c1 - INFO - No network state found, waiting for state
2024-02-27 13:58:10,061 - Work-Dispatcher b7dd6b52-71aa-4f58-b292-d44f8b9cd9c1 - INFO - No network state found, waiting for state
2024-02-27 13:58:11,061 - Work-Dispatcher b7dd6b52-71aa-4f58-b292-d44f8b9cd9c1 - INFO - No network state found, waiting for state
2024-02-27 13:58:12,061 - Work-Dispatcher b7dd6b52-71aa-4f58-b292-d44f8b9cd9c1 - INFO - No network state found, waiting for state
2024-02-27 13:58:13,062 - Work-Dispatcher b7dd6b52-71aa-4f58-b292-d44f8b9cd9c1 - INFO - No network state found, waiting for state
2024-02-27 13:58:14,062 - Work-Dispatcher b7dd6b52-71aa-4f58-b292-d44f8b9cd9c1 - INFO - No network state found, waiting for state
2024-02-27 13:58:15,062 - Work-Dispatcher b7dd6b52-71aa-4f58-b292-d44f8b9cd9c1 - INFO - No network state found, waiting for state
2024-02-27 13:58:16,063 - Work-Dispatcher b7dd6b52-71aa-4f58-b292-d44f8b9cd9c1 - INFO - No network state found, waiting for state
2024-02-27 13:58:17,063 - Work-Dispatcher b7dd6b52-71aa-4f58-b292-d44f8b9cd9c1 - INFO - No network state found, waiting for state
2024-02-27 13:58:18,063 - Work-Dispatcher b7dd6b52-71aa-4f58-b292-d44f8b9cd9c1 - INFO - No network state found, waiting for state
2024-02-27 13:58:19,064 - Work-Dispatcher b7dd6b52-71aa-4f58-b292-d44f8b9cd9c1 - INFO - No network state found, waiting for state
2024-02-27 13:58:20,064 - Work-Dispatcher b7dd6b52-71aa-4f58-b292-d44f8b9cd9c1 - INFO - No network state found, waiting for state
2024-02-27 13:58:21,064 - Work-Dispatcher b7dd6b52-71aa-4f58-b292-d44f8b9cd9c1 - INFO - No network state found, waiting for state
2024-02-27 13:58:22,065 - Work-Dispatcher b7dd6b52-71aa-4f58-b292-d44f8b9cd9c1 - INFO - No network state found, waiting for state
2024-02-27 13:58:23,065 - Work-Dispatcher b7dd6b52-71aa-4f58-b292-d44f8b9cd9c1 - INFO - No network state found, waiting for state
2024-02-27 13:58:24,066 - Work-Dispatcher b7dd6b52-71aa-4f58-b292-d44f8b9cd9c1 - INFO - No network state found, waiting for state
2024-02-27 13:58:25,066 - Work-Dispatcher b7dd6b52-71aa-4f58-b292-d44f8b9cd9c1 - INFO - No network state found, waiting for state
2024-02-27 13:58:26,066 - Work-Dispatcher b7dd6b52-71aa-4f58-b292-d44f8b9cd9c1 - INFO - No network state found, waiting for state
2024-02-27 13:58:27,067 - Work-Dispatcher b7dd6b52-71aa-4f58-b292-d44f8b9cd9c1 - INFO - No network state found, waiting for state
2024-02-27 13:58:28,067 - Work-Dispatcher b7dd6b52-71aa-4f58-b292-d44f8b9cd9c1 - INFO - No network state found, waiting for state
2024-02-27 13:58:29,067 - Work-Dispatcher b7dd6b52-71aa-4f58-b292-d44f8b9cd9c1 - INFO - No network state found, waiting for state
2024-02-27 13:58:30,068 - Work-Dispatcher b7dd6b52-71aa-4f58-b292-d44f8b9cd9c1 - INFO - No network state found, waiting for state
2024-02-27 13:58:31,068 - Work-Dispatcher b7dd6b52-71aa-4f58-b292-d44f8b9cd9c1 - INFO - No network state found, waiting for state
2024-02-27 13:58:32,068 - Work-Dispatcher b7dd6b52-71aa-4f58-b292-d44f8b9cd9c1 - INFO - No network state found, waiting for state
2024-02-27 13:58:33,069 - Work-Dispatcher b7dd6b52-71aa-4f58-b292-d44f8b9cd9c1 - INFO - No network state found, waiting for state
2024-02-27 13:58:34,069 - Work-Dispatcher b7dd6b52-71aa-4f58-b292-d44f8b9cd9c1 - INFO - No network state found, waiting for state
2024-02-27 13:58:35,070 - Work-Dispatcher b7dd6b52-71aa-4f58-b292-d44f8b9cd9c1 - INFO - No network state found, waiting for state
2024-02-27 13:58:36,070 - Work-Dispatcher b7dd6b52-71aa-4f58-b292-d44f8b9cd9c1 - INFO - No network state found, waiting for state
2024-02-27 13:58:36,544 - Packet-Worker d750d3d9-8562-413f-a53c-7a0a869a56bb - INFO - Processing 581 packets
2024-02-27 13:58:36,544 - Packet-Worker d750d3d9-8562-413f-a53c-7a0a869a56bb - INFO - Processing 581 packets in 1 processing steps
2024-02-27 13:58:36,559 - Packet-Worker d750d3d9-8562-413f-a53c-7a0a869a56bb - INFO - Processed 581 packets
2024-02-27 13:58:36,666 - State-Merger db6e42e9-1c66-4d64-ba60-a4be8bb3cbd1 - INFO - Processing 1 state(s)
2024-02-27 13:58:36,667 - State-Merger db6e42e9-1c66-4d64-ba60-a4be8bb3cbd1 - INFO - Merged 1 state(s), waiting for next batch
2024-02-27 13:58:37,070 - Work-Dispatcher b7dd6b52-71aa-4f58-b292-d44f8b9cd9c1 - INFO - Found 23 nodes in network state
2024-02-27 13:58:37,171 - Work-Dispatcher b7dd6b52-71aa-4f58-b292-d44f8b9cd9c1 - INFO - Found 23 new nodes in network state
2024-02-27 13:58:37,224 - Work-Dispatcher b7dd6b52-71aa-4f58-b292-d44f8b9cd9c1 - INFO - Dispatched 23 new node updates
2024-02-27 13:58:37,347 - Connection-Analysis eac8a4c6-d064-40fc-95d2-9b0828454286 - INFO - Analyzing 23 nodes
2024-02-27 13:58:37,428 - Work-Dispatcher b7dd6b52-71aa-4f58-b292-d44f8b9cd9c1 - INFO - Found 23 nodes with awaiting results
